Using egor to analyse ego-centered network data
…
All three data.frames contain an egoID identifying a unique ego and connecting their personal data to the alter and alter-alter tie data. The alterID is in the alter data is reused in the alter-alter tie data in the Source and Target columns.

Let’s create an egor object from the data we just loaded.

e1 <- egor(alters.df = alters32,
           egos.df = egos32,
           aaties = edges32,
           ID.vars = list(
             ego = "egoID",
             alter = "alterID",
             source = "Source",
             target = "Target"))
e1
#> # A tibble: 32 x 6
#>    egoID sex   age      netsize .alts                 .aaties              
#>    <chr> <fct> <fct>      <int> <list>                <list>               
#>  1 1     m     36 - 45       20 <data.frame [20 x 6]> <data.frame [57 x 3]>
#>  2 2     m     66 - 100      18 <data.frame [18 x 6]> <data.frame [55 x 3]>
#>  3 3     m     36 - 45       32 <data.frame [32 x 6]> <data.frame [140 x 3~
#>  4 4     m     26 - 35       11 <data.frame [11 x 6]> <data.frame [9 x 3]> 
#>  5 5     m     36 - 45       23 <data.frame [23 x 6]> <data.frame [94 x 3]>
#>  6 6     w     46 - 55       11 <data.frame [11 x 6]> <data.frame [15 x 3]>
#>  7 7     m     36 - 45       17 <data.frame [17 x 6]> <data.frame [40 x 3]>
#>  8 8     m     0 - 17         8 <data.frame [8 x 6]>  <data.frame [8 x 3]> 
#>  9 9     m     36 - 45       13 <data.frame [13 x 6]> <data.frame [15 x 3]>
#> 10 10    m     0 - 17        16 <data.frame [16 x 6]> <data.frame [42 x 3]>
#> # ... with 22 more rows
…
